
MODULE Wobj_Wobj_Table
	! Points are read in order of declaration.
  ! Please do not change the order of points!

    LOCAL PERS robtarget pWobj_U_PointX1:=[[449.6766,-538.8763,-1613.219],[0,0.961708664894104,-0.274073868989944,0],[0,0,0,0],[9E+09,9E+09,9E+09,9E+09,9E+09,9E+09]];
	LOCAL PERS robtarget pWobj_U_PointX2:=[[787.8805,73.65433,-1616.115],[0,0.961713552474976,-0.27405658364296,0],[0,0,0,0],[9E+09,9E+09,9E+09,9E+09,9E+09,9E+09]];
	LOCAL PERS robtarget pWobj_U_PointY1:=[[-541.9056,25.32334,-1618.891],[0,0.961713552474976,-0.27405658364296,0],[0,0,0,0],[9E+09,9E+09,9E+09,9E+09,9E+09,9E+09]];

ENDMODULE