MODULE mDataModule
	PERS tooldata tVac:=[TRUE,[[0,0,210],[1,0,0,0]],[0.3,[0,0,75],[1,0,0,0],0,0,0]];
    
!	TASK PERS wobjdata Wobj_Table:=[FALSE,TRUE,"",[[494.31,-641.459,-1694.17],[0.861809,-0.00479171,0.00162969,0.507207]],[[0,0,0],[1,0,0,0]]];
    TASK PERS wobjdata Wobj_Zero:=[FALSE,TRUE,"",[[0,0,0],[0.862029,-0.00506621,0.00168196,0.506831]],[[0,0,0],[1,0,0,0]]];
    
!    TASK PERS wobjdata Wobj_Table:=[FALSE,TRUE,"",[[493.921,-641.946,-1694.38],[0.861978,-0.00458628,0.00160928,0.506922]],[[0,0,0],[1,0,0,0]]];
    TASK PERS wobjdata Wobj_Table:=[FALSE,TRUE,"",[[456.757,-526.054,-1613.28],[0.861201,-0.00316998,0.000532212,0.508255]],[[0,0,0],[1,0,0,0]]];
    TASK PERS wobjdata Wobj_Table1 := [FALSE, TRUE, "", [[421.887, -530.951, -1590.23],[0.00079504, -0.260094, -0.965576, -0.00378414]],[[0, 0, 0],[1, 0, 0, 0]]];
    TASK PERS wobjdata Wobj_Table2 := [FALSE, TRUE, "", [[14.2725, -289.531, -1586.91],[0.863238, -9.71527E-05, -0.00474138, 0.504774]],[[0, 0, 0],[1, 0, 0, 0]]];
    TASK PERS wobjdata Wobj_Table3 := [FALSE, TRUE, "", [[-420.055, -39.5055, -1587.88],[0.864895, 0.0061686, -0.000752318, 0.501915]],[[0, 0, 0],[1, 0, 0, 0]]];
    PERS wobjdata Wobj_Table_Temp := [FALSE, TRUE, "", [[14.2725, -289.531, -1586.91],[0.863238, -9.71527E-05, -0.00474138, 0.504774]],[[0, 0, 0],[1, 0, 0, 0]]];
    
	CONST robtarget rtPick1:=[[3.05,3.15,-8.89],[0.00751993,-0.714364,0.699706,0.0062644],[0,0,0,0],[9E+09,9E+09,9E+09,9E+09,9E+09,9E+09]];
    CONST robtarget rtPick16:=[[-1.01,8.40,-2.14],[0.0013877,0.662544,-0.749008,-0.0045348],[0,0,0,0],[9E+09,9E+09,9E+09,9E+09,9E+09,9E+09]];
    CONST robtarget rtPick17:=[[172.77,7.76,-1.88],[0.00138802,0.66249,-0.749056,-0.0045347],[0,0,0,0],[9E+09,9E+09,9E+09,9E+09,9E+09,9E+09]];
    CONST robtarget rtPick18:=[[347.24,3.71,-4.84],[0.00138811,0.662477,-0.749068,-0.00453468],[0,0,0,0],[9E+09,9E+09,9E+09,9E+09,9E+09,9E+09]];
    CONST robtarget rtPick19:=[[522.70,2.84,-5.72],[0.00138808,0.662481,-0.749064,-0.00453469],[0,0,0,0],[9E+09,9E+09,9E+09,9E+09,9E+09,9E+09]];
    CONST robtarget rtPick20:=[[697.15,0.81,-9.32],[0.00138808,0.662481,-0.749064,-0.00453469],[0,0,0,0],[9E+09,9E+09,9E+09,9E+09,9E+09,9E+09]];
    CONST robtarget rtPick21:=[[1.89,152.84,-4.36],[0.00138794,0.662503,-0.749044,-0.00453473],[0,0,0,0],[9E+09,9E+09,9E+09,9E+09,9E+09,9E+09]];
    CONST robtarget rtPick22:=[[176.77,149.82,-2.22],[0.00138794,0.662503,-0.749044,-0.00453473],[0,0,0,0],[9E+09,9E+09,9E+09,9E+09,9E+09,9E+09]];
    CONST robtarget rtPick23:=[[351.49,148.49,-3.97],[0.00138802,0.66249,-0.749056,-0.0045347],[0,0,0,0],[9E+09,9E+09,9E+09,9E+09,9E+09,9E+09]];
    CONST robtarget rtPick24:=[[523.36,145.38,-6.55],[0.00138789,0.662512,-0.749036,-0.00453474],[0,0,0,0],[9E+09,9E+09,9E+09,9E+09,9E+09,9E+09]];
    CONST robtarget rtPick25:=[[696.76,144.35,-4.61],[0.00138808,0.662481,-0.749064,-0.00453469],[0,0,0,0],[9E+09,9E+09,9E+09,9E+09,9E+09,9E+09]];
    CONST robtarget rtPick26:=[[3.04,294.43,-2.16],[0.00138811,0.662477,-0.749068,-0.00453468],[0,0,0,0],[9E+09,9E+09,9E+09,9E+09,9E+09,9E+09]];
    CONST robtarget rtPick27:=[[176.80,293.76,-2.29],[0.00138824,0.662454,-0.749088,-0.00453464],[0,0,0,0],[9E+09,9E+09,9E+09,9E+09,9E+09,9E+09]];
    CONST robtarget rtPick28:=[[351.59,292.44,-2.27],[0.00138816,0.662468,-0.749076,-0.00453466],[0,0,0,0],[9E+09,9E+09,9E+09,9E+09,9E+09,9E+09]];
    CONST robtarget rtPick29:=[[525.43,288.24,-3.69],[0.00138851,0.662409,-0.749127,-0.00453455],[0,0,0,0],[9E+09,9E+09,9E+09,9E+09,9E+09,9E+09]];
    CONST robtarget rtPick30:=[[699.69,286.84,-6.17],[0.00138849,0.662414,-0.749123,-0.00453456],[0,0,0,0],[9E+09,9E+09,9E+09,9E+09,9E+09,9E+09]];
    CONST robtarget rtPick31:=[[3.89,0.70,-8.68],[0.0061641,0.714836,-0.699264,0.00078836],[0,0,0,0],[9E+09,9E+09,9E+09,9E+09,9E+09,9E+09]];
    CONST robtarget rtPlace:=[[-743.71,37.34,-1432.42],[0.00533804,-0.662501,0.749042,-2.89731E-05],[0,0,0,0],[9E+09,9E+09,9E+09,9E+09,9E+09,9E+09]];
    CONST robtarget rtClearTooling:=[[-613.33,32.59,-1328.45],[0.00532772,-0.704091,0.71009,-0.000332981],[0,0,0,0],[9E+09,9E+09,9E+09,9E+09,9E+09,9E+09]];
    PERS robtarget rtTemp;
    PERS robtarget rtTemp1;
    PERS robtarget rtPickLoc;
    CONST robtarget rtClearPath1:=[[-577.48,343.96,-1455.20],[0.00533323,-0.690025,0.723766,-0.0002284],[0,0,0,0],[9E+09,9E+09,9E+09,9E+09,9E+09,9E+09]];
    CONST robtarget rtClearPath2:=[[-577.48,343.96,-1455.20],[0.00533323,-0.690025,0.723766,-0.0002284],[0,0,0,0],[9E+09,9E+09,9E+09,9E+09,9E+09,9E+09]];
    CONST robtarget rtClearPath3:=[[-577.48,343.96,-1455.20],[0.00533323,-0.690025,0.723766,-0.0002284],[0,0,0,0],[9E+09,9E+09,9E+09,9E+09,9E+09,9E+09]];
    CONST robtarget rtClearPath4:=[[-577.48,343.96,-1455.20],[0.00533323,-0.690025,0.723766,-0.0002284],[0,0,0,0],[9E+09,9E+09,9E+09,9E+09,9E+09,9E+09]];
    

    VAR triggdata VacON;
    VAR triggdata VacOFF;
    
    PERS speeddata v10k:=[10000,5000,1,1];
    
    PERS bool bFirstTime:=TRUE;
    PERS bool bLoadMaskReady:=FALSE;
    PERS bool bTableLoaded:=FALSE;
    PERS bool bTableClear:=FALSE;
    
    VAR num Xoffs:=0;
    VAR num Yoffs:=0;
    VAR num Zoffs:=100;
    VAR num ZPlace:=100;
    VAR num j;
    VAR num VacOnTime:=0.05;!use 0 for simulation use 0.05 to ?? for real application
    VAR num VacOffTime:=0.07;!use 0 for simulation use 0.05 to ?? for real application
    VAR num Val;
    PERS num MaskPickLoc:=5;
    VAR num nPickDwell:=0.1;
    VAR num nPlaceDwell:=0.25;
    PERS num nXoffSet:=174.24;
	TASK PERS tooldata tPointer:=[TRUE,[[0,0,300],[1,0,0,0]],[0.3,[0,0,75],[1,0,0,0],0,0,0]];
    
    
    
    
ENDMODULE